<?xml version="1.0" encoding="utf-8"?>
<!-- Generator: Adobe Illustrator 17.1.0, SVG Export Plug-In . SVG Version: 6.00 Build 0)  -->
<!DOCTYPE svg PUBLIC "-//W3C//DTD SVG 1.1//EN" "http://www.w3.org/Graphics/SVG/1.1/DTD/svg11.dtd">
<svg version="1.1" xmlns="http://www.w3.org/2000/svg" xmlns:xlink="http://www.w3.org/1999/xlink" x="0px" y="0px"
	 viewBox="0 0 194 166" enable-background="new 0 0 194 166" xml:space="preserve">
<g id="Layer_1">
	<g>
		<path fill="none" d="M99.784,64.751c-0.006-0.003-0.013-0.006-0.019-0.01c-0.001,0.009-0.001,0.017-0.003,0.026
			C99.77,64.763,99.777,64.757,99.784,64.751z"/>
		<path fill="#FFFFFF" d="M151.243,23.801C115.597-2.213,65.499,0.703,33.025,32.447C1.407,63.355,0.972,104.883,10.906,130.167
			c6.283,0,12.57,0,18.858,0c0.711-0.961,1.419-1.896,2.104-2.848c2.684-3.73,5.942-7.052,8.249-11.034
			c2.272-3.921,2.651-8.055,0.265-12.172c-1.784-3.078-4.373-5.263-7.5-6.87c-0.392-0.202-0.75-0.386-1.227-0.376
			c-2.358,0.051-4.047-2.329-3.301-4.61c2.788,0.115,4.087,1.4,4.4,4.412c1.494,0.669,3.019,1.351,4.586,2.052
			c1.119-1.093,1.792-2.409,2.233-3.86c0.304-1.001,0.072-1.896-0.776-2.479c-1.44-0.99-2.764-2.319-4.773-1.983
			c-0.231,0.039-0.484-0.044-0.725-0.084c-2.309-0.38-4.423-3.375-3.808-5.392c4.973,0.855,6.801,2.09,6.769,5.223
			c1.704,0.529,3.004,1.744,4.397,2.791c1.106-0.571,1.809-1.397,2.058-2.578c0.215-1.02,0.144-2.046-0.011-3.064
			c-0.569-3.745-1.518-7.247-5.682-8.628c-0.015-0.005-0.028-0.016-0.043-0.024c-1.619-0.916-2.171-2.13-1.845-3.966
			c0.317-1.782,0.793-3.524,1.258-5.27c0.403-1.51-0.203-2.546-1.641-2.998c-2.139,1.509-4.613,1.064-5.119-0.963
			c0.703-0.295,1.439-0.455,2.202-0.549c0.774-0.096,1.499,0.058,2.248,0.378c-0.04-0.764-0.324-1.365-0.671-1.935
			c-0.456-0.752-0.984-1.464-1.398-2.237c-1.191-2.23,0.045-5.181,2.476-5.988c1.333,2.447,0.764,5.297-1.436,6.981
			c0.719,1.156,1.377,2.354,1.426,3.756c1.181,0.774,2.661,1.269,2.347,3.165c0.156-0.1,0.219-0.124,0.259-0.169
			c0.098-0.109,0.202-0.217,0.273-0.343c1.368-2.412,2.513-4.811,2.02-7.786c-0.492-2.971,1.831-4.979,4.564-4.229
			c-0.481,2.886-1.184,4.817-4.168,4.874c-0.512,1.552,0.21,3.285-0.676,4.838c-0.825,1.446-1.937,2.726-2.646,4.468
			c1.162-0.955,2.009-2.001,3.235-2.548c1.126-0.502,2.827-0.08,3.668,0.911c-0.77,1.008-1.631,1.943-2.629,2.732
			c-1.336,1.055-2.686,2.146-4.575,1.416c-0.86,1.805-0.233,3.739,1.582,4.923c1.194,0.778,2.552,1.222,3.835,1.906
			c1.489-0.599,3.017-1.129,4.472-1.815c2.954-1.393,3.963-3.314,3.6-6.594c-3.448-0.585-5.23-2.524-4.484-4.881
			c2.087-0.126,3.873,1.131,4.712,3.455c-0.033-0.426-0.032-0.668-0.072-0.903c-0.314-1.87-1.8-3.154-2.397-4.857
			c-2.658-0.316-4.056-2.336-3.144-4.487c1.381,0.455,2.213,1.059,3.147,2.308c0.207-0.532,0.166-1.029-0.052-1.481
			c-0.332-0.688-0.716-1.352-1.099-2.013c-1.682-2.905-0.983-5.151,2.073-6.631c1.383,2.575,0.713,5.489-1.62,6.963
			c0.023,0.068,0.036,0.148,0.075,0.214c0.09,0.154,0.168,0.328,0.294,0.447c0.973,0.92,1.056,2.034,0.744,3.246
			c-0.205,0.799-0.178,1.575,0.211,2.328c0.59,1.144,1.663,1.987,1.981,3.498c0.564-1.63,1.473-2.772,2.503-3.849
			c-0.08-1.162-0.108-2.326,0.245-3.444c0.256-0.81,0.272-1.539,0.002-2.39c-0.727-2.293,0.968-4.881,3.098-4.913
			c0.375,2.357-0.188,4.955-2.42,5.793c-0.4,1.52-0.795,3.057-0.765,4.734c0.677-0.191,1.279-0.384,1.893-0.529
			c1.945-0.461,3.116-1.603,3.304-3.653c0.034-0.371,0.125-0.739,0.213-1.103c0.494-2.052,0.946-4.136,3.348-4.833
			c1.359-3.857,4.064-4.513,6.232-3.801c-0.588,1.055-1.009,2.198-1.776,3.139c-0.923,1.133-2.07,1.661-3.543,1.151
			c-0.923-0.319-1.683-0.055-2.235,0.724c-1.346,1.899-1.595,4.182-2.27,6.379c0.825-0.058,1.546-0.143,2.028-0.769
			c0.864-1.12,2.032-1.79,3.34-2.192c1.742-0.536,3.515-0.968,5.268-1.469c1.285-0.368,2.536-0.824,3.578-1.659
			c0.099-3.066,2.633-5.223,4.919-4.232c-0.421,2.31-1.826,3.747-4.03,4.128c-0.093,0.016-0.195,0.047-0.268,0.103
			c-1.653,1.256-3.621,1.75-5.561,2.311c-1.908,0.551-3.854,0.999-5.577,2.049c-0.576,0.351-1.114,0.755-1.558,1.378
			c1.314,0.379,2.55,0.295,3.777,0.168c0.551-0.057,1.202,0.106,1.633-0.335c1.615-1.656,3.57-2.215,5.803-1.838
			c1.881,0.317,3.397,1.232,4.443,2.93c-1.418,0.815-2.886,1.299-4.431,1.477c-2.178,0.25-4.322,0.285-5.604-2.049
			c-1.621,0.508-3.272,0.481-4.927,0.226c-1.426-0.22-2.601,0.227-3.572,1.259c-0.911,0.969-1.998,1.66-3.242,2.12
			c-1.282,0.474-2.066,1.407-2.514,2.684c-0.625,1.782-1.052,3.622-1.113,5.489c-0.084,2.57-1.314,4.283-3.465,5.487
			c-0.711,0.398-1.407,0.822-2.098,1.254c-0.592,0.37-1.182,0.749-1.686,1.327c0.868,3.133,1.682,6.294,0.761,9.574
			c1.396,0.332,2.93-0.542,3.645-2.114c0.914-2.009,1.128-4.134,0.854-6.31c-0.17-1.352,1.05-3.784,2.337-4.525
			c0.162,1.989,0.477,3.969-1.344,5.463c-0.325,0.267-0.579,0.669-0.357,1.187c0.943,0.151,1.584-0.198,1.956-1.068
			c0.366-0.854,0.999-1.2,1.925-0.999c1.375,0.299,2.184,0.991,2.213,1.94c-1.433,0.542-2.861,0.989-4.168-0.235
			c-1.38,0.695-2.051,1.792-2.159,3.224c-0.148,1.952-1.093,3.348-2.773,4.326c-1.026,0.597-2.039,1.239-2.969,1.972
			c-2.639,2.08-2.887,5.362-0.645,7.842c1.182,1.308,2.153,2.727,2.641,4.455c0.711,2.519,0.224,4.972-0.315,7.432
			c-0.288,1.313-0.463,2.638-0.294,4.085c0.192-0.178,0.325-0.273,0.422-0.395c1.118-1.406,2.545-2.393,4.133-3.21
			c1.667-0.857,2.376-2.491,2.015-4.343c-0.205-1.054-0.535-2.102-0.378-3.185c0.084-0.583-0.045-1.013-0.478-1.384
			c-1.256-1.076-1.627-2.415-1.365-4.042c0.173-1.076-0.096-2.035-1.136-2.741c-1.17-0.794-1.49-2.063-1.325-3.423
			c0.146-1.202,0.701-2.173,1.817-2.788c0.506,0.796,1.023,1.53,1.458,2.31c0.607,1.089,0.325,2.075-0.396,3.035
			c-0.694,0.924-0.629,1.651,0.111,2.077c0.29-0.515,0.544-1.057,0.882-1.54c0.348-0.496,0.741-0.993,1.456-0.971
			c0.47,2.134-0.298,3.426-2.075,3.552c-0.57,1.364,0.244,3.448,1.496,3.831c1.45-1.12,2.386-3.628,1.982-5.362
			c-0.173-0.745-0.395-1.479-0.578-2.222c-0.568-2.299,0.008-3.447,2.146-4.269c0.255,0.606,0.339,1.249,0.451,1.89
			c0.232,1.326,0.155,2.503-1.247,3.205c-0.392,0.196-0.52,0.56-0.361,1.039c0.457,1.379,0.539,2.715-0.347,4.018
			c-0.443,0.652-0.634,1.46-0.777,2.251c-0.289,1.594,0.456,3.056,1.841,3.48c1.111-2,1.935-4.131,2.032-6.432
			c0.052-1.232,0.272-2.264,1.14-3.143c0.622-0.63,0.778-1.383,0.589-2.254c-0.276-1.271-0.704-2.497-1.349-3.603
			c-1.437-2.462-1.106-4.91-0.104-7.367c0.329-0.807,0.645-1.601,0.706-2.473c0.079-1.134,0.525-2.101,1.254-2.961
			c0.272-0.322,0.497-0.685,0.729-1.039c0.41-0.629,0.354-1.16-0.275-1.649c-0.99-0.771-1.921-1.617-2.916-2.38
			c-1.28-0.982-1.56-2.213-1.047-3.683c0.247-0.707,0.36-1.39,0.018-2.12c-0.244-0.521-0.218-1.114-0.165-1.686
			c0.159-1.723,2.112-3.405,3.628-3.128c0.326,2.787-0.056,5.117-2.664,5.636c-0.24,0.414-0.395,0.882-0.379,1.346
			c0.037,1.025-0.355,2.242,0.631,2.963c1.003,0.734,1.946,1.523,2.873,2.341c0.627,0.554,1.332,0.628,2.099,0.358
			c1.264-0.445,2.067-1.492,3.067-2.274c-0.088-0.79-0.507-1.373-0.924-1.955c-0.848-1.185-1.807-2.164-2.021-3.852
			c-0.326-2.572,1.228-5.138,3.63-4.976c-0.027,1.244,0.139,2.503-0.22,3.727c-0.214,0.729-0.601,1.361-1.422,1.529
			c-0.933,0.191-1.069,0.757-0.741,1.523c0.564,1.314,1.574,2.254,2.666,3.128c0.522,0.418,1.027,0.472,1.621,0.173
			c1.521-0.764,2.984-1.605,4.173-2.855c0.61-0.642,1.282-1.207,2.184-1.52c0.126-0.439,0.305-0.883,0.378-1.343
			c0.339-2.117,1.571-3.552,3.374-4.597c1.084-0.628,2.156-1.284,3.191-1.991c0.716-0.489,1.33-1.111,1.569-1.997
			c0.48-1.781,2.327-2.661,4.141-1.917c-0.196,0.376-0.376,0.756-0.586,1.118c-0.571,0.982-1.198,1.849-2.543,1.795
			c-0.656-0.026-1.177,0.44-1.677,0.834c-1.256,0.99-2.569,1.897-3.929,2.738c-1.44,0.89-2.235,2.188-2.449,3.861
			c-0.044,0.342,0.024,0.609,0.331,0.814c0.894,0.081,1.238-0.497,1.4-1.237c0.178-0.81,0.597-1.227,1.475-1.253
			c0.636-0.018,1.257-0.02,1.879,0.154c0.072-0.162,0.173-0.281,0.169-0.396c-0.059-1.563,1.073-2.139,2.213-2.736
			c2.519-1.319,4.717-3.013,6.296-5.432c0.465-0.712,1.086-1.304,1.765-1.818c1.139-0.862,2.114-1.862,2.95-3.032
			c1.158-1.619,4.037-1.683,5.397-0.192c-1.503,2.053-3.809,2.7-6.141,1.702c-1.445,0.971-2.632,2.2-3.586,3.784
			c2.544-0.936,5.081-0.348,5.521,1.22c-2.135,1.626-4.501,1.691-6.305,0.149c-1.505,1.16-2.775,2.615-4.619,3.685
			c1.885,0.102,3.303,0.717,4.476,1.9c-1.952,1.944-5.056,2.23-7.535,0.684c-0.494,2.515-0.209,5.002-0.114,7.513
			c3.197,0.627,4.194-1.804,5.43-3.775c0.362-0.055,0.652-0.098,0.942-0.142c4.027-0.621,5.208-1.798,5.802-5.785
			c0.264-1.775,2.048-2.996,3.871-2.65c0.386,2.472-1.152,4.538-3.732,5.014c-0.021,0.025-0.047,0.047-0.062,0.075
			c-0.088,0.156-0.162,0.321-0.263,0.468c-1.267,1.86-2.489,3.736-5.21,3.494c-0.949-0.085-1.562,0.591-1.83,1.485
			c-0.3,1.001-0.138,1.923,0.572,2.692c0.133,0,0.221,0.022,0.294-0.003c3.37-1.17,6.778-2.275,8.228-6.068
			c0.347-0.907,0.928-1.715,1.99-1.824c0.921-0.094,1.889,0.061,2.502-0.853c-0.227,0.409-0.775,0.821,0.092,1.236
			c-0.313,0.4-0.614,0.782-0.911,1.166c-0.442,0.572-0.81,1.176-0.951,1.904c-0.125,0.645,0.191,1.021,0.766,0.94
			c1.104-0.156,2.209-0.266,2.998-1.331c1.266-1.708,2.9-1.837,4.667-0.484c-0.492,0.439-0.949,0.904-1.464,1.294
			c-0.747,0.567-1.578,1.032-2.522,0.526c-0.827-0.443-1.608-0.384-2.376,0.028c-0.96,0.516-1.889,1.091-2.827,1.648
			c-0.373,0.221-0.711,0.289-1.139,0.069c-0.718-0.369-1.501-0.426-2.286-0.221c-1.374,0.358-2.626,1.022-3.778,1.804
			c-1.707,1.161-3.331,1.444-5.294,0.528c-2.165-1.011-4.084-0.011-5.833,1.302c-0.13,0.098-0.197,0.28-0.311,0.448
			c0.598,0.692,1.275,0.993,2.1,0.596c1.012-0.486,1.973-1.079,2.995-1.54c0.82-0.37,1.698-0.464,2.393,0.291
			c0.392,0.427,0.698,0.934,1.043,1.405c-1.304,1.178-3.481,0.938-4.709-0.532c-1.261,1.042-2.678,1.25-4.197,0.743
			c-1.045,0.481-2.827,2.718-3.177,3.978c0.191,0.238,0.458,0.402,0.745,0.423c2.809,0.212,5.687,0.672,7.728-2.05
			c0.365-0.487,0.834-0.884,1.51-0.863c1.307,0.041,2.325-0.463,3.291-1.372c1.142-1.074,3.533-0.448,4.203,0.956
			c-1.598,1.739-4.371,2.033-5.837,0.62c-1.795-0.06-3.651,1.196-3.994,2.741c0.886,0.319,1.692-0.053,2.499-0.305
			c1.211-0.378,2.411-0.804,3.581,0.03c1.424-0.444,2.725-0.314,3.901,0.682c1.054-1.69,1.84-3.333,0.705-5.278
			c-0.513-0.879-0.232-1.951,0.575-2.586c0.673-0.53,1.477-0.801,2.245-1.114c1.25,1.555,0.588,3.545-1.622,4.913
			c0.184,0.803-0.032,1.618-0.085,2.477c1.821,0.345,3.13-0.97,4.708-1.204c-0.014-3.067,1.06-4.717,2.956-4.562
			c-0.013,0.956-0.168,1.893-0.432,2.89c0.785-0.468,1.486-0.91,2.209-1.311c1.261-0.698,2.001-1.729,2.15-3.177
			c0.25-2.433,1.284-4.516,2.641-6.534c0.785-1.168,1.749-1.532,2.988-1.605c0.42-0.025,0.843-0.004,1.26-0.004
			c0.698-3.398,2.253-4.977,4.385-4.431c-0.176,0.773-0.338,1.551-0.532,2.321c-0.32,1.27-1.159,2.008-2.427,2.255
			c-0.542,0.106-1.095,0.16-1.646,0.216c-2.885,0.295-3.044,1.104-3.835,3.413c1.593,0.522,3.077-0.036,4.577-0.449
			c0.273,0.418,0.331,0.821,0.019,1.247c0.565,0.531,1.076,1.086,1.66,1.548c2.213,1.747,3.652,1.622,4.935-0.468
			c0.885-1.442,2.165-2.024,3.762-1.793c1.88,0.272,3.032,1.544,3.918,3.134c-2.415,1.178-5.369,0.57-6.868-1.386
			c-0.867,0.385-1.08,1.468-2.141,1.829c0.407,0.142,0.627,0.247,0.859,0.296c2.642,0.563,5.271,1.099,8.015,1.007
			c3.284-0.11,5.97,2.874,5.763,6.239c-1.661-0.013-3.488-0.085-4.742-1.023c-1.529-1.144-3.707-2.086-3.447-4.624
			c-1.57-0.855-3.248-0.781-5.137-1.222c0.825,0.929,1.768,1.387,1.947,2.453c0.171,1.014,0.17,1.962-0.43,2.881
			c-1.494-0.646-2.867-1.388-3.744-2.841c-0.558,0.529-1.186,0.744-1.869,0.773c-0.748,0.032-1.499-0.008-2.247,0.03
			c-0.549,0.027-1.067,0.182-1.508,0.725c0.702,0.212,1.317,0.415,1.942,0.584c1.585,0.428,3.221,0.682,4.699,1.463
			c0.496,0.262,0.81,0.597,0.896,1.18c0.066,0.446,0.058,0.952,0.465,1.277c0.491-0.017,0.532-0.518,0.893-0.782
			c-0.21,1.125-1.042,1.496-1.875,1.82c-0.821,0.319-1.671,0.562-2.52,0.843c1.362,2.22,3.05,2.583,5.112,1.149
			c0.308-0.214,0.61-0.436,0.926-0.638c0.523-0.334,1.049-0.666,1.774-0.736c-0.979,0.647-1.883,1.245-2.792,1.846
			c0.239,0.402,0.571,0.578,0.914,0.727c0.792,0.345,1.642,0.398,2.486,0.462c2.58,0.196,4.426,2.203,4.082,4.489
			c-1.292-0.623-2.734-0.745-4.042-1.297c-1.056-0.446-1.743-1.187-1.687-2.379c0.038-0.801-0.419-1.046-1.041-1.128
			c-0.396-0.052-0.827-0.04-1.212,0.059c-1.994,0.516-3.773,0.231-5.286-1.261c-0.2-0.197-0.504-0.438-0.744-0.422
			c-1.57,0.104-2.99,0.586-4.076,1.86c0.756,1.319,2.18,1.613,3.289,2.338c2.329-2.022,5.587-2.086,7.01-0.132
			c-0.746,0.515-1.491,1.03-2.248,1.554c0.055,0.184,0.228,0.305,0.391,0.297c0.853-0.042,1.338,0.56,1.905,1.03
			c2.118,1.756,4.633,2.971,6.6,4.947c1.311,1.317,1.629,3.967,0.503,5.475c-2.641-1.471-3.651-3.839-2.848-6.678
			c-2.128-2.159-7.113-4.323-9.062-3.901c0.025,0.932,0.784,1.533,0.996,2.352c2.875-0.459,4.168,1.231,4.359,3.16
			c-1.236,0.074-2.436-0.057-3.67-0.536c0.082,0.334,0.137,0.557,0.244,0.992c-0.556-0.992-1.006-1.782-1.443-2.58
			c-0.22-0.402-0.063-0.918-0.373-1.297c-0.816-0.996-1.6-2.02-2.457-2.979c-2.162-2.419-4.875-3.524-8.118-3.217
			c-1.224,0.116-2.35,0.553-3.39,1.291c0.612,0.951,1.514,0.818,2.289,0.667c1.431-0.278,2.309,0.498,3.059,1.459
			c0.377,0.483,0.781,0.719,1.34,0.845c1.411,0.319,2.89,0.308,4.253,0.858c1.354,0.546,2.094,1.829,1.879,3.233
			c-2.191,0.255-4.163-1.126-4.871-3.438c-0.616-0.428-1.374-0.412-2.075-0.637c-0.072,0.361,0.308,0.572,0.08,0.873
			c-0.374-0.013-0.754-0.211-1.171,0.03c0.519,1.259,0.931,2.549,1.807,3.615c0.466,0.568,0.99,0.806,1.783,0.685
			c2.787-0.424,5.378,1.865,5.125,4.453c-3.205,0.176-5.272-1.181-6.116-4.03c-1.611-1.177-2.249-3.001-2.992-4.745
			c-1.653-0.346-3.355-0.592-3.514-2.717c-0.751-0.565-1.566-0.7-2.409-0.634c-1.805,0.141-3.604,0.264-5.41-0.032
			c-1.027-0.168-2.065-0.299-3.114-0.214c-1.088,0.088-2.102,0.729-2.267,1.441c3.302-0.129,5.433,1.193,5.495,3.407
			c-2.595,0.943-5.157,0.203-6.643-1.954c-1.407,1.063-2.015,2.782-3.44,4.013c3.891,2.406,7.823,1.835,11.825,0.803
			c-0.489,0.257-0.979,0.514-1.496,0.785c1.129,0.672,3.876,0.383,4.443-0.443c-0.813-0.242-1.734-0.098-2.48-0.682
			c0.251-1.274,1.079-1.97,2.219-2.324c1.232-0.383,2.419-0.308,3.529,0.508c-0.459,0.745-1.312,1.012-1.755,1.828
			c1.793-0.168,2.969,0.599,3.733,2.088c-1.913,1.13-4.508,0.848-5.851-0.636c-0.58,0.061-1.185,0.125-1.943,0.205
			c1.21,1.226,2.517,2.1,3.72,3.027c0.458-0.114,0.86-0.214,1.486-0.37c-0.465,0.333-0.856,0.42-0.944,0.913
			c0.99,0.048,1.951,0.095,3.189,0.156c-0.758-0.493-1.031-1.202-1.822-1.053c1.226-0.307,1.921-1.646,3.336-1.607
			c1.378,0.038,2.323,0.77,3.241,1.687c-0.51,0.461-1.067,0.731-1.661,0.904c-0.579,0.169-1.176,0.273-1.956,0.448
			c0.472,0.179,0.762,0.315,1.067,0.4c0.952,0.265,1.94,0.204,2.912,0.278c2.127,0.162,3.87,2.342,3.468,4.366
			c-3.973-0.467-5.612-1.201-5.94-4.008c-1.68-0.925-3.387-1.456-4.489-1.321c-1.243,0.152-2.267-0.199-3.127-1.12
			c-0.71-0.76-1.392-1.561-2.315-2.088c-0.782-0.447-1.592-0.587-2.477-0.213c1.867,1.466,2.699,3.372,2.025,4.632
			c-1.116-0.366-2.208-0.781-3.099-1.591c-0.813-0.739-1.087-1.701-1.037-2.834c-3.091,0.293-5.976-0.34-8.83-1.201
			c-0.122-0.037-0.292,0.011-0.416,0.069c-1.532,0.713-3.135,1.261-4.8,1.458c-3.635,0.43-6.076,2.429-7.671,5.607
			c0.308,0.229,0.54,0.277,1.876,0.345c1.284-2.437,2.721-3.338,4.199-2.602c-0.249,1.083-1.044,1.819-1.814,2.642
			c1.157,0.374,1.899-0.408,2.911-0.778c-0.197,0.239-0.29,0.364-0.395,0.476c-0.924,0.987-2.134,1.017-3.354,0.979
			c-2.246-0.07-4.492-0.277-6.734,0.058c-2.272,0.34-4.179,1.297-6.039,2.725c-2.194,1.686-3.755,3.696-4.868,6.152
			c-0.122,0.268-0.278,0.52-0.484,0.901c0.984-0.086,1.83-0.121,2.663-0.241c2.152-0.308,4.289-0.652,5.478-2.85
			c0.426-0.787,0.938-1.53,1.738-1.999c-0.025-0.741-0.222-1.391-0.853-2.184c0.401,0.261,0.55,0.357,0.698,0.454
			c1.399-2.26,2.667-2.992,4.153-2.411c-0.328,1.689-1.416,2.572-3.671,2.918c0.399,0.553,0.6,1.241,1.493,1.041
			c2.828-0.631,5.653-1.283,8.49-1.869c1.723-0.356,2.797-1.349,3.353-2.989c0.282-0.831,0.566-1.671,1.12-2.376
			c0.158-0.201,0.304-0.415,0.606-0.448c2.083-0.227,3.95-0.856,5.555-2.343c1.212-1.124,3.806-0.454,4.453,0.958
			c-1.933,1.545-4.32,1.806-6.011,0.636c-0.758,0.427-1.607,0.657-2.45,0.904c-2.313,0.678-3.477,2.453-3.206,4.913
			c0.776,0.386,1.608,0.315,2.295-0.087c2.383-1.392,5.028-2.12,7.553-3.152c1.935-0.791,3.791-0.082,4.527,1.899
			c-1.916,1.143-4.367,0.753-6.037-0.975c-1.638,0.161-2.821,1.15-4.044,2.234c1.27,0.595,2.549,0.665,3.828,0.78
			c3.11,0.281,5.799-1.228,8.641-2.038c2.507-0.715,3.32-0.542,4.796,1.663c-1.803,1.304-4.15,0.929-6.202-0.999
			c-0.785,0.031-1.203,0.787-1.956,0.944c0.069,0.125,0.099,0.199,0.147,0.26c0.1,0.128,0.204,0.254,0.317,0.371
			c1.083,1.126,2.507,1.529,3.964,1.862c2.657,0.607,5.518,0.535,7.78,2.37c2.535-1.571,5.353-1.003,5.848,1.196
			c-0.531,0.121-1.084,0.19-1.594,0.375c-1.582,0.573-2.872,0.269-4.07-0.969c-1.539-1.592-3.736-1.579-5.81-2.164
			c0.66,1.498,1.727,2.486,2.798,3.494c0.631,0.593,1.339,0.462,2.052,0.501c2.408,0.131,4.298,2.335,3.929,4.682
			c-1.796-0.291-3.62-0.462-5.04-1.801c-0.585-0.551-0.902-1.265-0.889-2.053c0.01-0.632-0.229-1.069-0.652-1.49
			c-1.07-1.066-2.239-2.054-2.844-3.503c-2.181-0.159-4.174-0.723-5.885-2.088c-0.92-0.734-2.9-0.61-4.03,0.405
			c3.211,0.873,2.995,3.475,3.164,5.875c-3.713-0.257-3.829-2.989-3.865-5.764c-2.119-0.096-4.091-0.471-5.97-1.28
			c-0.181-0.078-0.506,0.018-0.692,0.141c-1.065,0.705-2.227,0.989-3.499,1.054c-1.315,0.067-2.453,0.848-3.737,1.104
			c-2.037,0.405-4.122,0.343-6.166,0.671c-1.919,0.308-3.552,1.823-3.664,3.422c0.812,0.15,1.543-0.136,2.264-0.438
			c1.291-0.541,2.488-0.36,3.601,0.449c0.5,0.364,0.97,0.77,1.46,1.148c0.514,0.396,1.015,0.817,1.67,0.983
			c0.807-0.482,1.63-1.152,2.557-0.996c1.311,0.221,2.47-0.165,3.675-0.464c0.032-0.008,0.064-0.015,0.096-0.02
			c2.764-0.439,5.781,1.662,5.974,4.161c-3.325,0.536-7.004,0.352-7.847-2.936c-1.05-0.402-2.068-0.659-3.084,0.156
			c-1.004,0.805-1.68,0.809-2.747,0.085c-0.781-0.53-1.512-1.134-2.291-1.668c-0.735-0.504-1.608-0.792-2.403-0.345
			c-2.127,1.193-4.248,2.379-6.598,3.087c-0.005,0.002-0.003,0.028-0.01,0.106c0.992,0.181,2.007,0.356,2.857,0.97
			c0.89,0.642,1.311,1.527,1.359,2.615c-2.53,0.193-4.107-0.732-5.395-3.137c-2.179,0.527-4.365,1.036-6.541,1.587
			c-4.976,1.26-8.102,4.333-9.146,9.453c46.554,0,93.117,0,139.67,0C196.324,96.805,188.87,51.261,151.243,23.801z M89.51,52.423
			c-0.833,1.35-2.089,2.028-3.616,2.223c-1.207-1.825,0.841-4.455,3.889-5.036C90.2,50.597,90.055,51.54,89.51,52.423z
			 M86.06,28.586c-0.167,0.266,0.081,0.488,0.09,0.805c-1.682,0.242-3.284,1.172-5.134,0.498c-0.742,2.343-2.397,3.797-4.379,4.977
			c0,1.476,0,2.921,0,4.454c-2.05-0.364-4.419,0.992-6.033-1.438c2.504-2.15,4.488-4.509,3.93-8.147
			c-2.317-1.024-3.655-3.177-5.294-5.014c-0.942-1.056-2.016-1.937-3.333-2.498c0.039-0.274,0.073-0.51,0.114-0.793
			c-0.254-0.154-0.497-0.302-0.728-0.442c-0.161-0.438,0.308-0.53,0.44-0.835c-0.453-0.111-0.824-0.305-0.979-0.86
			c4.408,1.885,8.366,4.558,12.774,6.238c0.333-0.144,0.494-0.389,0.615-0.657c0.392-0.865,0.941-1.558,2.001-1.328
			c1.061,0.231,1.392,1.07,1.428,2.103c3.221,1.824,6.405,2.167,9.528-0.305C88.782,27.73,88.411,28.567,86.06,28.586z
			 M97.409,49.303c-0.989,1.397-2.504,1.537-4.004,1.617c-0.726-0.774-0.742-1.709-0.01-2.361c1.114-0.992,2.504-1.217,3.919-1.372
			C97.763,47.951,97.868,48.656,97.409,49.303z M100.978,49.057c0.452-1.071,1.581-2.019,2.492-2.113
			c1.189,1.344-0.068,3.839-2.345,4.612C100.598,50.752,100.617,49.912,100.978,49.057z M111.492,63.07
			c-0.546,0.9-1.406,1.372-2.484,1.212c-0.998-0.147-1.918,0.061-2.791,0.494c-1.979,0.982-4.013,1.591-6.262,1.239
			c-0.543-0.085-1.088,0.109-1.489,0.55c-0.003,0.004-0.008,0.006-0.011,0.01c0.002,0.002,0.003,0.005,0.005,0.007
			c0,0-0.007-0.005-0.007-0.005l0,0c0,0,0,0,0,0c0.001-0.001,0.001-0.001,0.002-0.002c0,0,0,0-0.001-0.001
			c-1.059-1.256-1.337-2.677-0.844-4.235c0.203-0.642,0.568-1.172,1.353-1.316c0.421,1.163,1.041,2.262,0.802,3.719
			c0.005,0.004,0.013,0.006,0.019,0.01c1.113-0.795,1.642-1.87,2.369-2.739c-0.863-3.659,0.481-6.324,3.328-6.452
			c-0.077,1.786,0.246,3.61-0.856,5.226c-0.194,0.284-0.432,0.574-0.777,0.642c-1.223,0.241-1.899,1.122-2.527,2.074
			c-0.519,0.786-1.035,1.575-1.78,2.324c3.069,0.419,5.576-1.122,8.241-1.899c0.73-2.995,2.731-4.437,5.192-3.713
			C112.48,61.174,112.045,62.157,111.492,63.07z M110.619,57.398c-0.151-2.172,2.135-4.228,3.815-3.459
			C114.271,56.311,112.262,58.152,110.619,57.398z M116.919,31.282c-1.378,0.526-1.183,1.727-1.118,2.806
			c0.045,0.757-0.057,1.395-0.539,2.001c-0.78,0.979-1.511,1.998-2.262,3c0.14-1.832,0.153-3.624,0.184-5.41
			c-0.827-0.275-1.549-0.198-2.283,0.034c-0.712,0.225-1.121,0.91-1.802,1.216c-0.28-0.48-0.717-0.819-0.495-1.472
			c1.309-0.238,2.465-0.848,3.295-2.032c-1.061-1.342-1.82-2.936-3.705-3.456c0.06-0.075,0.12-0.149,0.18-0.224
			c0.121-0.028,0.258-0.108,0.361-0.077c1.249,0.382,2.517,0.141,3.778,0.137c0.595-0.002,0.982,0.305,1.341,0.755
			c0.663,0.835,1.211,1.829,2.623,1.495c0.577-0.136,0.807,0.661,1.356,0.964C117.459,31.125,117.18,31.182,116.919,31.282z
			 M120.305,105.368c-1.308-0.686-2.279-1.63-2.952-2.887c-0.7-1.308-0.602-2.624,0.039-3.994c1.361,0.213,2.331,1.054,2.953,2.311
			C121.086,102.299,121.135,103.816,120.305,105.368z M123.051,55.118c0.02,2.254-2.085,4.197-3.769,3.508
			C118.868,56.697,121.158,54.544,123.051,55.118z M121.927,67.343c-1.303,0.37-2.57,0.348-3.651-0.677
			c0.931-2.406,4.595-3.341,6.301-1.619C124.187,66.364,123.155,66.994,121.927,67.343z M124.541,67.817
			c1.124-1.851,4.142-2.212,5.146-0.615C128.15,69.06,125.453,69.382,124.541,67.817z M136.425,35.818
			c-0.884,0.027-1.648,0.5-2.52,0.56c-0.546,0.037-1.101,0.079-1.587-0.153c-1.093-0.522-2.406-0.187-3.378-0.951
			c0.489-0.995,1.278-1.619,2.465-1.395c0.635-2.254,1.253-2.92,3.753-4.132c0.224,0.359-0.091,0.682-0.07,1.143
			c1.08-0.306,1.981-1.003,3.053-1.204c0.227,0.276,0.005,0.514-0.011,0.786c0.065,0.154,0.141,0.332,0.253,0.597
			c-0.789,0.863-1.853,1.415-2.773,2.213c0.015,0.195,0.034,0.435,0.052,0.668c0.725,0.521,1.032,0.489,3.544-0.375
			c0.061,0.327,0.067,0.676,0.335,0.944c-0.177,0.478,0.204,0.876,0.187,1.536C138.62,35.339,137.521,35.784,136.425,35.818z
			 M145.729,52.649c-0.591-0.06-1.008-0.554-1.619-0.532c0.595-1.23,0.595-1.23,1.544-1.307c0.054-0.638,0.109-1.279,0.165-1.936
			c-0.529-0.354-1.48-0.134-1.62-1.196c1.766,0.544,4.187,0.017,3.792,3.096c0.921-0.287,1.649-0.624,2.161-1.252
			c0.356-0.438,0.751-0.591,1.272-0.527c1.038,0.127,2.061,0.375,3.319,0.256c-0.894,0.751-1.825,0.725-2.65,0.931
			c-0.485,0.121-0.673,0.321-0.84,0.719c-0.343,0.821-0.477,1.801-1.542,2.139c0.083,0.361,0.354,0.508,0.554,0.723
			c0.799,0.058,1.583,0.181,2.348,0.525c-0.215,0.193-0.379,0.429-0.749,0.233c0.048,0.226,0.352,0.489-0.133,0.536
			c0.121,0.086,0.195,0.138,0.3,0.213c-0.147,0.033-0.254,0.057-0.369,0.083c0.065,0.309-0.421,0.482-0.144,0.827
			c-0.427,0.195-0.834,0.169-1.35,0.179c-0.265-1.65-1.792-1.69-2.965-2.222C146.524,53.829,145.985,53.383,145.729,52.649z
			 M165.766,100.297c-0.395-0.035-0.62-0.287-0.973-0.152c0.039,0.662,0.481,1.305,0.245,2.022c-1.28,0.18-1.542,1.974-3.03,1.86
			c-0.545-1.189-0.656-2.476-0.837-3.743c-0.25-1.753-1.129-3.042-2.749-3.765c-1.263-0.564-2.568-1.033-3.834-1.59
			c-1.534-0.676-2.683-1.647-2.88-3.496c-0.11-1.033-0.74-1.863-1.658-2.422c-0.29-0.176-0.57-0.368-0.865-0.559
			c1.611-1.322,3.714-1.497,5.15-0.418c1.126-0.752,1.561-1.903,1.725-3.171c0.078-0.602,0.288-1.044,0.746-1.453
			c1.251-1.117,2.481-2.26,3.673-3.439c0.905-0.896,1.591-1.964,2.115-3.187c0.322,0.396,0.123,0.814,0.262,1.268
			c0.165-0.271,0.296-0.485,0.462-0.758c0.569,0.626-0.056,1.147-0.071,1.731c0.57,0.081,0.849-0.212,1.012-0.731
			c0.317,0.31,0.189,0.593,0.049,0.865c-0.14,0.27-0.299,0.53-0.469,0.828c0.485,0.135,0.797-0.132,1.228-0.327
			c-0.421,4.992-0.413,10.014-3.692,14.352c0.523,2.57,3.291,2.309,4.926,3.656C165.972,98.512,166.384,99.528,165.766,100.297z"/>
		<path fill="#FFFFFF" d="M156.39,22.322C120.215-6.037,69.101-4.724,34.181,25.617C-1.142,56.307-4.535,100.684,6.326,130.169
			c0.635,0,1.279,0,2.007,0c-6.67-19.3-7.387-38.742-1.656-58.288c5.739-19.576,16.79-35.649,32.9-48.143
			C55.681,11.248,74.013,4.683,94.381,4.029c17.364-0.557,33.693,3.42,48.856,11.923c15.326,8.594,27.489,20.494,36.074,35.824
			c14.018,25.03,15.909,51.238,6.992,78.382c0.637,0,1.294,0,1.937,0C200.15,97.369,193.766,51.623,156.39,22.322z"/>
		<path fill="#FFFFFF" d="M67.879,81.331c-2.812,3.311-6.691,4.455-10.388,5.971c-1.19,2.074-1.612,4.134,0.063,6.179
			c0.622,0.759,1.272,1.481,2.037,2.102c0.462,0.375,0.953,0.479,1.544,0.416c3.165-0.338,5.197-2.121,6.412-4.964
			c0.892-2.086,1.266-4.303,1.616-6.555c1.245-0.769,2.255-1.809,3.06-3.028c1.615-2.442,3.231-4.868,5.91-6.316
			c0.287-0.155,0.533-0.403,0.579-0.8c0.091-0.792,0.218-1.581,0.347-2.368c0.265-1.615,0.283-2.284,0.048-2.762
			c-0.76,1.029-1.775,1.164-2.932,0.813c-0.633,0.659-1.442,0.925-2.311,1.068c-0.951,0.156-1.856,0.45-2.496,1.216
			c-1.055,1.261-2.379,2.095-3.905,2.662c-0.67,0.249-1.261,0.644-1.69,1.384c2.368,0.852,4.125-1.247,6.2-1.026
			c1.418-1.863,4.103-2.136,5.15-0.581c-0.459,0.303-0.93,0.589-1.374,0.913c-0.979,0.714-1.987,0.923-3.098,0.301
			c-0.769-0.431-1.585-0.349-2.368-0.056c-0.7,0.262-1.381,0.581-2.048,0.92c-0.917,0.466-1.817,0.576-2.754,0.07
			c-0.654-0.353-1.364-0.434-2.022-0.084c-1.324,0.705-2.715,1.347-3.182,2.999c-0.181,0.64-0.524,1.251-1.002,1.72
			c-1.194,1.173-0.802,2.829-1.539,4.285c0.453-0.055,0.709-0.066,0.955-0.12c1.935-0.428,3.736-1.229,5.57-1.952
			c1.859-0.733,3.18-1.707,3.366-3.969c0.14-1.71,1.947-2.569,3.48-1.95C70.609,79.601,70.169,81.428,67.879,81.331z"/>
		<path fill="#FFFFFF" d="M91.606,87.038c0.294,1.221,0.962,1.599,1.749,1.744c2.629,0.486,5.198,0.211,7.664-0.812
			c1.727-0.716,3.499-1.074,5.372-1.074c1.181-0.001,2.443,0.074,3.483-0.572c1.79-1.113,3.764-1.679,5.756-2.238
			c0.63-0.177,1.246-0.414,1.913-0.892c-2.619-0.263-3.724-2.051-4.839-4.105c-0.163-0.008-0.518-0.055-0.87-0.039
			c-1.763,0.08-3.55,0.185-5.237-0.383c-2.956-0.996-4.923,0.685-6.963,2.374c0.37,0.308,0.875,0.393,1.162,0.82
			c1.607-0.25,3.196-0.519,4.791-0.74c1.775-0.246,3.56-0.494,5.34-0.053c0.875,0.217,1.53,0.697,1.64,1.676
			c-1.026,0.658-2.975,0.532-3.799-0.256c-0.418-0.401-0.891-0.56-1.454-0.574c-1.409-0.035-2.735,0.383-4.075,0.724
			c-1.481,0.376-2.917,0.459-4.296-0.383c-0.62-0.378-1.322-0.398-2.038-0.282c-1.512,0.245-2.825,1.079-4.335,1.391
			c-0.081,0.492-0.643,0.872-0.264,1.434c1.749-0.314,3.445-0.563,4.872,0.96C95.475,86.911,93.97,88.345,91.606,87.038z"/>
		<path fill="#FFFFFF" d="M62.15,103.47c-0.754,0.728-1.781,0.82-2.764,1.032c-0.793,0.172-1.497,0.487-1.89,1.248
			c-0.708,1.369-0.686,2.843-0.627,4.353c0.536-0.071,0.946-0.308,1.339-0.56c1.086-0.697,2.156-1.446,3.004-2.41
			c1.307-1.486,2.882-2.016,4.825-1.938c2.147,0.087,3.922-0.818,5.111-2.628c1.368-2.081,2.362-4.347,2.933-6.78
			c0.123-0.523,0.149-1.069,0.224-1.633c-0.944,0.101-1.801,0.604-2.595-0.03c-0.559-0.447-1.079-0.473-1.711-0.168
			c-0.477,0.23-1.011,0.348-1.528,0.487c-0.218,0.059-0.377,0.146-0.504,0.338c-0.572,0.863-1.361,1.485-2.254,1.982
			c-1.638,0.912-3.434,1.394-5.228,1.872c-0.324,0.086-0.545,0.246-0.704,0.539c-0.745,1.369-0.817,2.884-1.031,4.424
			c1.078-0.009,2.058-0.186,3-0.462c1.157-2.784,5.239-3.397,6.686-1.595C66.753,103.637,64.353,104.382,62.15,103.47z"/>
		<path fill="#FFFFFF" d="M75.935,83.603c-0.925,0.07-1.847,0.176-2.772,0.252c-0.243,0.02-0.449,0.101-0.608,0.272
			c-0.752,0.807-1.39,1.828-1.729,2.748c-0.561,1.524-1.158,3.065-1.609,4.64c-0.167,0.582-0.335,1.175-0.234,1.861
			c0.381-0.067,0.712-0.132,1.046-0.183c1.57-0.239,2.725-1.859,4.523-1.254c0.144-2.136,1.197-3.423,3.191-3.879
			c1.039-0.237,2.13,0.231,2.645,1.048c-1.119,1.256-3.13,1.641-4.885,0.934c-0.755,0.941-0.632,1.981,0.396,3.041
			c-1.415,0.412-0.498,1.241-0.396,1.952c0.093,0.004,0.16,0.02,0.22,0.007c0.094-0.02,0.203-0.038,0.274-0.096
			c1.352-1.103,2.989-1.284,4.616-1.265c1.795,0.021,3.069-0.549,3.67-2.334c0.108-0.322,0.406-0.581,0.641-0.903
			c-0.154-0.739-0.069-1.51,0.123-2.3c-0.107-0.034-0.153-0.061-0.199-0.062c-0.879-0.009-1.759,0.003-2.637-0.027
			c-1.328-0.046-1.95-0.537-2.336-1.793C79.434,84.833,77.458,83.489,75.935,83.603z"/>
		<path fill="#FFFFFF" d="M86.49,89.903c-1.372,0.186-1.94,1.105-2.307,2.279c-0.227,0.724-0.404,1.482-0.991,2.025
			c-0.699,0.043-1.384,0.058-2.062,0.13c-2.108,0.224-4.176,0.604-5.859,2.031c-0.954,0.809-1.384,1.848-1.168,3.157
			c0.814-0.13,1.586-0.235,2.35-0.379c1.88-0.355,3.827-0.525,5.262-2.055c0.361-0.386,0.808-0.722,1.274-0.972
			c0.928-0.499,1.576-1.228,2.087-2.129c0.577-1.018,1.046-2.192,2.092-2.783c2.08-1.174,2.514-3.277,3.282-5.295
			c-1.624-0.359-2.892-1.075-2.971-2.926c-1.258-0.469-2.403-0.175-3.526,0.241c-1.263,0.468-2.525,0.866-3.902,0.637
			c-0.278-0.046-0.589-0.047-0.835,0.181c-0.112,0.51,0.372,0.723,0.527,1.116c2.956-0.6,3.36-0.396,5.216,2.619
			c1.069-0.478,1.85-1.803,3.349-1.258c-0.181,0.885-0.407,1.712-0.852,2.461C87.22,89.379,86.949,89.841,86.49,89.903z"/>
		<path fill="#FFFFFF" d="M105.351,75.629c-0.224,0.621-0.611,1.109-0.528,1.798c1.291,0.337,2.502,0.908,3.847,1.063
			c1.58,0.182,2.426-1.433,3.863-1.476c0.891-1.636,1.016-1.707,3.594-2.065c0.079-0.378,0.159-0.756,0.258-1.225
			c-1.931-0.456-3.381-1.665-4.789-2.944c-1.184,0.454-2.381,0.118-3.561,0.185c-0.633,0.036-1.37,0.021-1.686,0.664
			c-0.474,0.965-0.66,2.013-0.373,3.109c2.11-0.671,4.209,0.311,4.265,1.976C108.502,76.935,106.759,77.232,105.351,75.629z"/>
		<path fill="none" d="M161.375,94.013c3.279-4.338,3.271-9.36,3.692-14.352c-0.431,0.196-0.743,0.462-1.228,0.327
			c0.17-0.299,0.329-0.559,0.469-0.828c0.141-0.272,0.268-0.555-0.049-0.865c-0.164,0.518-0.442,0.812-1.012,0.731
			c0.015-0.584,0.64-1.105,0.071-1.731c-0.167,0.273-0.297,0.487-0.462,0.758c-0.139-0.455,0.06-0.872-0.262-1.268
			c-0.524,1.224-1.211,2.292-2.115,3.187c-1.192,1.18-2.422,2.323-3.673,3.439c-0.458,0.409-0.668,0.851-0.746,1.453
			c-0.163,1.268-0.599,2.419-1.725,3.171c-1.436-1.079-3.539-0.904-5.15,0.418c0.295,0.191,0.576,0.382,0.865,0.559
			c0.919,0.559,1.549,1.389,1.658,2.422c0.197,1.849,1.346,2.82,2.88,3.496c1.266,0.557,2.571,1.026,3.834,1.59
			c1.62,0.723,2.499,2.012,2.749,3.765c0.181,1.266,0.291,2.554,0.837,3.743c1.487,0.114,1.749-1.68,3.03-1.86
			c0.236-0.718-0.205-1.36-0.245-2.022c0.353-0.134,0.578,0.118,0.973,0.152c0.618-0.769,0.206-1.785,0.535-2.629
			C164.666,96.321,161.898,96.583,161.375,94.013z"/>
		<path fill="none" d="M81.574,25.649c-0.036-1.033-0.367-1.872-1.428-2.103c-1.06-0.231-1.609,0.463-2.001,1.328
			c-0.122,0.269-0.283,0.514-0.615,0.657c-4.408-1.68-8.366-4.353-12.774-6.238c0.155,0.555,0.526,0.75,0.979,0.86
			c-0.132,0.305-0.602,0.397-0.44,0.835c0.231,0.14,0.474,0.288,0.728,0.442c-0.041,0.283-0.075,0.519-0.114,0.793
			c1.317,0.561,2.39,1.442,3.333,2.498c1.639,1.837,2.977,3.99,5.294,5.014c0.558,3.638-1.426,5.997-3.93,8.147
			c1.614,2.43,3.982,1.073,6.033,1.438c0-1.534,0-2.978,0-4.454c1.981-1.18,3.637-2.634,4.379-4.977
			c1.85,0.674,3.452-0.256,5.134-0.498c-0.009-0.316-0.257-0.539-0.09-0.805c2.351-0.019,2.722-0.856,5.042-3.242
			C87.979,27.816,84.794,27.473,81.574,25.649z"/>
		<polygon fill="#FFFFFF" points="98.453,66.576 98.453,66.576 98.46,66.581 98.455,66.574 98.453,66.576 		"/>
		<path fill="none" d="M107.781,63.925c-2.664,0.777-5.172,2.318-8.241,1.899c0.745-0.748,1.261-1.537,1.78-2.324
			c0.628-0.952,1.305-1.833,2.527-2.074c0.345-0.068,0.583-0.358,0.777-0.642c1.102-1.616,0.779-3.44,0.856-5.226
			c-2.846,0.128-4.19,2.793-3.328,6.452c-0.727,0.87-1.256,1.945-2.369,2.739c-0.008,0.005-0.014,0.011-0.021,0.017
			c0.002-0.009,0.001-0.017,0.003-0.026c0.239-1.457-0.381-2.557-0.802-3.719c-0.786,0.144-1.15,0.674-1.353,1.316
			c-0.493,1.558-0.215,2.979,0.844,4.235c0,0,0,0,0.001,0.001c0.003-0.004,0.008-0.006,0.011-0.01
			c0.401-0.441,0.946-0.635,1.489-0.55c2.249,0.352,4.284-0.257,6.262-1.239c0.873-0.433,1.792-0.641,2.791-0.494
			c1.078,0.159,1.938-0.312,2.484-1.212c0.553-0.912,0.989-1.895,1.48-2.857C110.512,59.489,108.511,60.931,107.781,63.925z"/>
		<path fill="none" d="M116.475,30.055c-1.412,0.334-1.96-0.66-2.623-1.495c-0.358-0.451-0.746-0.757-1.341-0.755
			c-1.26,0.004-2.529,0.245-3.778-0.137c-0.103-0.031-0.24,0.049-0.361,0.077c-0.06,0.075-0.12,0.149-0.18,0.224
			c1.884,0.52,2.643,2.115,3.705,3.456c-0.83,1.185-1.986,1.795-3.295,2.032c-0.221,0.653,0.216,0.992,0.495,1.472
			c0.681-0.306,1.089-0.991,1.802-1.216c0.734-0.232,1.456-0.309,2.283-0.034c-0.032,1.786-0.044,3.577-0.184,5.41
			c0.752-1.002,1.482-2.021,2.262-3c0.482-0.606,0.584-1.244,0.539-2.001c-0.064-1.079-0.26-2.279,1.118-2.806
			c0.262-0.1,0.54-0.157,0.913-0.263C117.282,30.715,117.052,29.918,116.475,30.055z"/>
		<path fill="none" d="M139.541,34.521c-0.268-0.269-0.274-0.617-0.335-0.944c-2.512,0.864-2.819,0.896-3.544,0.375
			c-0.018-0.233-0.037-0.473-0.052-0.668c0.92-0.799,1.984-1.35,2.773-2.213c-0.113-0.265-0.188-0.443-0.253-0.597
			c0.017-0.272,0.238-0.51,0.011-0.786c-1.072,0.201-1.972,0.897-3.053,1.204c-0.021-0.461,0.295-0.784,0.07-1.143
			c-2.5,1.212-3.118,1.878-3.753,4.132c-1.186-0.225-1.975,0.399-2.465,1.395c0.973,0.764,2.285,0.429,3.378,0.951
			c0.486,0.232,1.041,0.19,1.587,0.153c0.871-0.06,1.636-0.533,2.52-0.56c1.095-0.034,2.194-0.479,3.303,0.24
			C139.744,35.397,139.363,34.999,139.541,34.521z"/>
		<path fill="none" d="M150.166,56.358c0.516-0.01,0.923,0.016,1.35-0.179c-0.278-0.345,0.208-0.518,0.144-0.827
			c0.116-0.026,0.222-0.05,0.369-0.083c-0.105-0.074-0.179-0.127-0.3-0.213c0.485-0.047,0.18-0.31,0.133-0.536
			c0.37,0.196,0.534-0.04,0.749-0.233c-0.766-0.344-1.549-0.468-2.348-0.525c-0.2-0.215-0.471-0.362-0.554-0.723
			c1.065-0.338,1.199-1.318,1.542-2.139c0.166-0.398,0.355-0.598,0.84-0.719c0.825-0.206,1.755-0.18,2.65-0.931
			c-1.259,0.12-2.282-0.128-3.319-0.256c-0.521-0.064-0.916,0.09-1.272,0.527c-0.512,0.629-1.239,0.965-2.161,1.252
			c0.395-3.079-2.025-2.552-3.792-3.096c0.14,1.063,1.091,0.842,1.62,1.196c-0.056,0.658-0.11,1.299-0.165,1.936
			c-0.949,0.077-0.949,0.077-1.544,1.307c0.611-0.021,1.028,0.472,1.619,0.532c0.256,0.734,0.795,1.181,1.472,1.487
			C148.374,54.668,149.901,54.708,150.166,56.358z"/>
		<path fill="none" d="M117.392,98.488c-0.641,1.369-0.739,2.685-0.039,3.994c0.672,1.257,1.644,2.2,2.952,2.887
			c0.83-1.552,0.781-3.069,0.04-4.569C119.723,99.542,118.753,98.701,117.392,98.488z"/>
		<path fill="none" d="M118.275,66.665c1.081,1.025,2.349,1.047,3.651,0.677c1.228-0.349,2.26-0.979,2.65-2.296
			C122.87,63.325,119.206,64.26,118.275,66.665z"/>
		<path fill="none" d="M85.894,54.646c1.527-0.195,2.783-0.873,3.616-2.223c0.545-0.883,0.69-1.826,0.273-2.813
			C86.735,50.191,84.687,52.82,85.894,54.646z"/>
		<path fill="none" d="M93.396,48.559c-0.732,0.652-0.717,1.587,0.01,2.361c1.5-0.08,3.014-0.22,4.004-1.617
			c0.459-0.648,0.354-1.353-0.095-2.116C95.9,47.342,94.509,47.567,93.396,48.559z"/>
		<path fill="none" d="M123.051,55.118c-1.893-0.573-4.182,1.579-3.769,3.508C120.966,59.314,123.071,57.372,123.051,55.118z"/>
		<path fill="none" d="M103.47,46.945c-0.911,0.094-2.04,1.041-2.492,2.113c-0.361,0.855-0.379,1.695,0.147,2.5
			C103.402,50.784,104.658,48.289,103.47,46.945z"/>
		<path fill="none" d="M110.619,57.398c1.643,0.755,3.652-1.087,3.815-3.459C112.754,53.17,110.468,55.226,110.619,57.398z"/>
		<path fill="none" d="M124.541,67.817c0.912,1.565,3.609,1.243,5.146-0.615C128.682,65.605,125.665,65.966,124.541,67.817z"/>
	</g>
</g>
<g id="Layer_2">
	<g>
		<path fill="#FFFFFF" d="M9.853,155.521h7.795v0.708h-6.968v3.01h6.236v0.72h-6.236V164H9.853V155.521z"/>
		<path fill="#FFFFFF" d="M22.331,155.532L26.6,164h-0.875l-1.091-2.194h-5.457L18.097,164h-0.839l4.162-8.468H22.331z
			 M21.875,156.288l-2.375,4.846h4.797L21.875,156.288z"/>
		<path fill="#FFFFFF" d="M29.04,155.532l3.226,6.86c0.192,0.42,0.24,0.552,0.372,0.899l3.562-7.76h1.055V164H36.5v-7.532
			c-0.096,0.24-0.12,0.3-0.252,0.576L33.046,164h-0.84l-3.226-6.908c-0.132-0.275-0.156-0.324-0.252-0.624V164h-0.755v-8.468H29.04z
			"/>
		<path fill="#FFFFFF" d="M40.02,155.532h0.804V164H40.02V155.532z"/>
		<path fill="#FFFFFF" d="M44.424,155.532v7.76h6.165V164h-6.992v-8.468H44.424z"/>
		<path fill="#FFFFFF" d="M56.624,155.532h0.948l-3.838,5.038V164h-0.768v-3.43l-3.994-5.038h1.008l3.37,4.354L56.624,155.532z"/>
		<path fill="#FFFFFF" d="M64.572,155.532v3.622h7.124v-3.622h0.815V164h-0.815v-4.138h-7.124V164h-0.816v-8.468H64.572z"/>
		<path fill="#FFFFFF" d="M75.3,155.532h8.107v0.708h-7.28v2.963h6.728v0.707h-6.728v3.382h7.627V164H75.3V155.532z"/>
		<path fill="#FFFFFF" d="M89.758,155.532l4.27,8.468h-0.875l-1.091-2.194h-5.457L85.524,164h-0.839l4.162-8.468H89.758z
			 M89.302,156.288l-2.375,4.846h4.797L89.302,156.288z"/>
		<path fill="#FFFFFF" d="M96.239,155.532v7.76h6.165V164h-6.993v-8.468H96.239z"/>
		<path fill="#FFFFFF" d="M100.705,155.532h8.239v0.708h-3.634V164h-0.804v-7.76h-3.802V155.532z"/>
		<path fill="#FFFFFF" d="M111.096,155.532v3.622h7.124v-3.622h0.815V164h-0.815v-4.138h-7.124V164h-0.815v-8.468H111.096z"/>
		<path fill="#FFFFFF" d="M134.803,161.722c-0.156,0.264-0.3,0.503-0.563,0.815c-1.067,1.271-2.495,1.679-3.862,1.679
			c-3.382,0-4.761-2.459-4.761-4.485c0-2.566,2.086-4.462,4.761-4.462c0.924,0,1.787,0.229,2.495,0.612
			c0.971,0.539,1.403,1.211,1.715,1.715l-0.708,0.396c-0.144-0.24-0.239-0.407-0.479-0.695c-0.72-0.888-1.859-1.271-2.975-1.271
			c-2.278,0-3.909,1.571-3.909,3.766c0,1.967,1.451,3.683,3.909,3.683c2.363,0,3.299-1.523,3.646-2.1L134.803,161.722z"/>
		<path fill="#FFFFFF" d="M136.415,155.532h8.107v0.708h-7.279v2.963h6.729v0.707h-6.729v3.382h7.628V164h-8.456V155.532z"/>
		<path fill="#FFFFFF" d="M155.982,155.532V164h-0.756l-7.256-7.388V164h-0.756v-8.468h0.756l7.256,7.425v-7.425H155.982z"/>
		<path fill="#FFFFFF" d="M157.26,155.532h8.239v0.708h-3.634V164h-0.804v-7.76h-3.802V155.532z"/>
		<path fill="#FFFFFF" d="M172.677,155.532c0.575,0,1.271,0,1.858,0.324c0.647,0.372,1.067,1.127,1.067,1.991
			c0,0.611-0.191,1.307-0.815,1.799c-0.647,0.504-1.547,0.552-2.194,0.575l3.405,3.778h-1.139l-3.347-3.778h-3.874V164h-0.815
			v-8.468H172.677z M167.639,159.503h4.546c0.863,0,1.631-0.024,2.123-0.552c0.288-0.312,0.407-0.756,0.407-1.14
			c0-0.552-0.252-1.008-0.575-1.247c-0.432-0.336-0.972-0.336-1.439-0.336h-5.062V159.503z"/>
		<path fill="#FFFFFF" d="M178.127,155.532h8.107v0.708h-7.279v2.963h6.729v0.707h-6.729v3.382h7.628V164h-8.456V155.532z"/>
	</g>
</g>
<g id="Layer_3">
	<g>
		<path fill="#FFFFFF" d="M10.41,146.838c0.253,0.299,0.506,0.575,1.127,0.989c1.771,1.219,3.932,1.586,6.071,1.586
			c3.564,0,5.519-1.311,5.519-3.288c0-2.254-2.552-2.46-5.771-2.736c-4.07-0.345-5.473-0.46-6.715-1.587
			c-0.989-0.92-1.149-1.954-1.149-2.713c0-4.622,6.117-4.737,7.611-4.737c2.276,0,4.576,0.368,6.461,1.633
			c0.805,0.552,1.173,0.988,1.633,1.633l-2.093,0.851c-0.345-0.345-0.552-0.575-0.943-0.851c-1.449-1.035-3.242-1.357-5.013-1.357
			c-1.311,0-2.943,0.185-3.909,0.667c-1.127,0.552-1.449,1.38-1.449,2.047c0,0.482,0.184,0.92,0.483,1.242
			c0.552,0.644,1.403,0.781,2.92,0.942c1.472,0.161,2.92,0.253,4.392,0.414c0.69,0.068,1.403,0.161,2.092,0.321
			c1.748,0.414,3.726,1.541,3.726,4.209c0,0.666-0.115,1.701-0.828,2.713c-1.265,1.794-3.771,2.575-7.128,2.575
			c-1.333,0-3.035-0.184-4.185-0.482c-3.334-0.828-4.507-2.529-4.967-3.196L10.41,146.838z"/>
	</g>
	<g>
		<path fill="#FFFFFF" d="M48.691,143.112c0,5.542-4.553,8.324-9.773,8.324c-2.369,0-4.76-0.437-6.668-1.793
			c-1.587-1.104-3.289-3.128-3.289-6.554c0-6.002,4.944-8.715,9.796-8.715C44.437,134.397,48.691,137.731,48.691,143.112z
			 M31.261,142.952c0,1.265,0.322,2.897,1.426,4.139c1.518,1.771,3.886,2.346,6.231,2.346c6.002,0,7.45-3.794,7.45-6.554
			c0-4.277-3.426-6.646-7.864-6.53C35.124,136.444,31.261,138.146,31.261,142.952z"/>
	</g>
	<g>
		<path fill="#FFFFFF" d="M56.111,134.766v9.635c0.023,1.886,0.207,2.989,1.61,3.886c0.598,0.392,1.886,1.104,4.461,1.104
			c1.563,0,2.943-0.299,3.84-0.713c2.092-0.943,2.092-2.622,2.092-3.979v-9.934h2.323v9.75c0,1.633,0,3.863-2.483,5.473
			c-1.127,0.735-2.943,1.402-5.795,1.402c-2.116,0-4.254-0.345-6.001-1.563c-2.3-1.587-2.369-3.679-2.369-5.519v-9.543H56.111z"/>
	</g>
	<g>
		<path fill="#FFFFFF" d="M74.179,134.766h15.568v1.932h-6.646V151h-2.3v-14.303h-6.623V134.766z"/>
	</g>
	<g>
		<path fill="#FFFFFF" d="M93.812,134.742h2.323v6.646h12.439v-6.646h2.323V151h-2.323v-7.681H96.135V151h-2.323V134.742z"/>
	</g>
	<g>
		<path fill="#FFFFFF" d="M125.812,134.742h2.322v6.646h12.439v-6.646h2.323V151h-2.323v-7.681h-12.439V151h-2.322V134.742z"/>
	</g>
	<g>
		<path fill="#FFFFFF" d="M147.765,134.766h2.369V151h-2.369V134.766z"/>
	</g>
	<g>
		<path fill="#FFFFFF" d="M155.812,134.766h2.299v14.257h10.762V151h-13.061V134.766z"/>
	</g>
	<g>
		<path fill="#FFFFFF" d="M172.812,134.766h2.299v14.257h10.762V151h-13.061V134.766z"/>
	</g>
</g>
</svg>
